<?xml version="1.0" standalone="no"?>
<!DOCTYPE svg PUBLIC "-//W3C//DTD SVG 1.1//EN" "http://www.w3.org/Graphics/SVG/1.1/DTD/svg11.dtd" >
<svg xmlns="http://www.w3.org/2000/svg">
<metadata>Generated by IcoMoon</metadata>
<defs>
<font id="icomoon" horiz-adv-x="1024">
<font-face units-per-em="1024" ascent="960" descent="-64" />
<missing-glyph horiz-adv-x="1024" />
<glyph unicode="&#x20;" horiz-adv-x="512" d="" />
<glyph unicode="&#xe900;" glyph-name="gear" d="M513.113 971.8c-282.832 0-512.113-229.281-512.113-512.113s229.28-512.112 512.112-512.112 512.113 229.28 512.113 512.112c0.001 282.832-229.28 512.113-512.112 512.113zM856.657 446.931c0 0-0.306-0.164-0.864-0.461-6.414-30.815-31.438-53.808-61.354-53.808h-36.928v-174.516c0-34.784-31.059-62.973-69.373-62.973-38.31 0-69.368 28.19-69.368 62.973v174.516h-68.346v-174.516c0-34.782-31.060-62.973-69.373-62.973-38.311 0-69.368 28.188-69.368 62.973v174.516h-63.246v-174.516c0-34.782-31.059-62.973-69.371-62.973s-69.371 28.188-69.371 62.973v483.080c0 34.777 31.060 62.969 69.371 62.969 38.313 0 69.371-28.192 69.371-62.969v-169.826h63.246v169.827c0 34.777 31.059 62.969 69.368 62.969 38.313 0 69.373-28.192 69.373-62.969v-169.827h167.492v169.824c0 34.783 31.059 62.972 69.373 62.972 38.311 0 69.368-28.189 69.368-62.972v-228.492c0.49-3.487 0.747-7.059 0.747-10.696 0-3.639-0.257-7.211-0.747-10.698v-4.407z" />
<glyph unicode="&#xe901;" glyph-name="engin" d="M144.996 192.779c0 0-2.056-44.187 36.992-44.187s188.041 0 188.041 0l125.361 170.575h492.196c0 0 36.991 7.189 36.991 56.512v191.123c0 0-9.248 41.098-46.239 40.074h-187.015l-69.874 77.048h105.839c0 0 30.827 10.271 30.827 42.122v73.754h-548.969v-84.002c0 0 6.165-30.826 34.68-30.826s103.268 0 103.268 0l-70.13-74.754h-195.747c0 0-34.716-12.331-36.239-42.386v-83.232l-70.882-0.771v30.826h-23.891c0 0 0.771 23.891 6.936 41.616s27.744 58.57 11.56 150.278c0 0-3.083 31.597-38.533 67.818 0 0-36.221-15.413-29.285-102.498 0 0 13.872-100.956 28.515-153.361v-4.624h-29.398v-140.26h36.333c0 0 1.285-43.669-11.045-64.224 0 0-28.773-69.359 1.027-153.62 0 0 16.442-34.938 28.773-44.698 0 0 31.853 4.112 33.395 75.524 0 0-1.544 49.316-11.304 96.074 0 0-17.984 64.735-16.955 88.884l-0.192 2.156 17.532 0.096v29.736h67.433v-210.773z" />
<glyph unicode="&#xe902;" glyph-name="car1" d="M151.465 355.741c1.881-41.939-13.072-76.682-33.406-77.593-20.333-0.911-38.343 32.342-40.226 74.289-1.881 41.938 13.071 76.681 33.405 77.593 20.336 0.915 38.344-32.349 40.227-74.289zM487.653 289.858c4.822-55.002-15.596-101.716-45.623-104.341-29.998-2.64-58.238 39.813-63.064 94.814-4.816 55.004 15.606 101.723 45.611 104.354 30.027 2.635 58.265-39.824 63.076-94.827zM990.905 484.362l-146.382 77.798c0 0 18.426 11.258 18.426 36.852l-10.239 15.355-76.773-9.212-93.148 113.626-283.56 44.019-245.68-28.664c0 0-18.422-12.285-40.945-47.088l-45.042-76.774-36.852-8.192-30.71-39.922 30.709-187.331 35.83-16.378c0 0-4.094 57.325 9.213 76.772 0 0 21.497 26.614 61.419 4.096 0 0 26.613-9.21 31.732-100.316l193.474-49.139c0 0-9.213 87.010 31.731 112.604 0 0 54.262 27.643 89.062-20.472 0 0 31.729-20.476 26.612-134.102l160.719-41.97c0 0 17.399-10.232 41.968 0l288.675 83.938 22.522 89.062-32.761 105.438zM51.188 473.104h-18.427l-16.378 69.608h34.805v-69.608zM93.152 600.036l65.517 96.225 63.466-13.308-16.378-106.461-112.605 23.544zM226.231 362.547h-27.64v176.069h27.64v-176.069zM234.418 569.327l7.167 113.626 117.722-18.425 59.374-125.912-184.263 30.711zM470.888 538.616l-80.871 131.027 268.202 32.76 94.176-117.723-281.507-46.064zM699.16 319.552l-47.084 27.64 13.305 44.019h130.006l4.096-44.019-100.323-27.64zM920.272 289.864l-105.433-32.756v42.994l105.433 31.731v-41.969zM975.552 400.423l-69.609-15.619v45.245l75.75 38.959 13.31-49.137-19.451-19.448z" />
<glyph unicode="&#xe903;" glyph-name="car2" d="M316.195 289.17c0-43.78-35.491-79.271-79.271-79.271s-79.271 35.491-79.271 79.271c0 43.78 35.491 79.271 79.271 79.271s79.271-35.491 79.271-79.271zM784.498 289.17c0-43.78-35.491-79.271-79.271-79.271s-79.271 35.491-79.271 79.271c0 43.78 35.491 79.271 79.271 79.271s79.271-35.491 79.271-79.271zM1001.884 486.566l-207.394 72.395-151.882 163.872h-386.365c0 0-10.217 1.774-29.312-24.427-19.094-26.201-94.593-143.888-94.593-143.888l-95.034-24.868-37.304-55.069 72.386-220.717h69.28c0 0-6.665 34.191 2.219 65.725 0 0 16.433 68.838 95.038 68.838 78.604 0 97.702-72.39 97.702-72.39s3.553-28.865-1.777-59.952h274.008c0 0-2.223 26.202 0 44.854 2.223 18.651 16.878 87.486 96.371 87.486 79.491 0 97.699-73.72 97.257-91.483-0.443-17.765-1.774-40.415-1.774-40.415h196.289c0 0 25.315 91.93 27.093 102.587 1.772 10.659-22.208 127.452-22.208 127.452zM48.405 391.091l-22.648 85.268h43.965l21.318-85.268h-42.635zM409.457 564.29h-213.167l66.614 115.909h146.553v-115.909zM441.432 297.83h-25.313v221.161h25.313v-221.161zM450.758 564.29v115.909h183.856l94.593-115.909h-278.449zM873.096 427.063v49.296l103.919-27.979 9.326-39.968-91.93-17.32-21.315 35.971zM986.341 297.83h-66.615v50.627h83.934l-17.319-50.627z" />
<glyph unicode="&#xe904;" glyph-name="car3" d="M34.2 653.46c21.186-2.352 52.999-24.194 76.766-22.825-20.042-35.435-47.504-77.901-51.765-92.805-6.25-21.875-12.541-244.044 9.375-246.884 409.394-53.131 890.669-18.751 896.919-3.125 6.246 15.625 6.246 209.383 0 243.759-6.192 34.055-21.595 71.162-43.146 99.193 22.832 2.18 50.994 20.54 70.312 22.687 28.126 3.125 40.626 50.001 15.625 62.502-25.001 12.504-96.879 18.754-93.753-9.375 1.609-14.49-3.418-31.459-8.671-44.519-25.1 57.23-62.772 166.971-90.377 182.027-34.376 18.75-593.775 0-609.405-3.122-15.622-3.128-65.627-137.509-75.003-168.76-1.405-4.691-3.91-10.555-7.104-17.13-6.075 13.49-13.563 34.256-11.646 51.503 3.125 28.129-68.752 21.879-93.753 9.375-25-12.499-12.5-59.376 15.626-62.501zM271.713 431.576c0 0-150.009 12.501-168.76 21.876-18.75 9.375-12.5 62.502-12.5 62.502h181.261v-84.378zM724.859 437.827h-425.024v78.127h425.023v-78.127zM923.906 453.452c-18.751-9.375-168.756-21.876-168.756-21.876v84.378h181.26c-0.001 0.001 6.246-53.126-12.504-62.502zM234.208 800.344c37.505 12.5 550.028 15.626 571.904 0 21.879-15.625 53.131-156.256 53.131-156.256-240.642 21.876-693.783 0-693.783 0s31.246 143.755 68.748 156.256zM1003.808 175.343h-42.386c5.446 31.324 3.113 87.478 3.113 87.478s-106.254-15.626-146.884-15.626c0 0-2.848-48.439-3.103-71.852h-602.234c-0.255 23.412-3.107 71.852-3.107 71.852-40.626 0-146.88 15.626-146.88 15.626s-2.333-56.153 3.111-87.478h-42.347c-10.281 0-18.692-8.412-18.692-18.692s8.412-18.692 18.692-18.692h980.717c10.281 0 18.692 8.411 18.692 18.692 0 10.28-8.411 18.692-18.692 18.692z" />
<glyph unicode="&#xe905;" glyph-name="car4" d="M1013.378 674.086c-7.622 0-51.921 0-51.921 0l-43.074 151.248c0 0-7.18 18.553-21.553 18.553-14.354 0-348.575 0-348.575 0s-19.45-0.942-30.823-34.9l-31.695-109.507 41.751-3.579 21.354 89.813c0 0 4.198 13.839 22.152 13.839 17.959 0 307.585 0 307.585 0s8.992 1.251 17.359-28.936l26.927-93.086h-365.49l72.942-220.747h184.835v-51.587h-167.788l15.398-46.601h265.267v-41.275c0 0 0.224-7.792 10.324-7.792 10.089 0 51.612 0 51.612 0s6.495 0.709 6.495 6.145c0 5.41 0 289.617 0 289.617l-10.089 22.882h28.048c0 0 5.689 2.669 5.689 11.155s0 26.581 0 26.581 0.911 8.177-6.73 8.177zM974.327 529.731l-22.141-23.891h-71.201v47.806l93.342 28.287v-52.202zM689.572 519.225c-8.853 0-60.276 0-60.276 0l-50.018 175.603c0 0-8.331 21.543-25.013 21.543-16.674 0-404.71 0-404.71 0s-22.577-1.097-35.779-40.523l-44.807-154.799h-57.677c0 0-7.292-2.551-7.292-12.779s0-34.682 0-34.682 1.736-8.398 11.815-8.398c10.070 0 27.442 0 27.442 0l-12.852-24.827-0.094-326.854c0 0-2.079-17.535 19.543-17.535 21.625 0 48.464 0 48.464 0s13.415 0.824 13.415 14.105 0 42.851 0 42.851h478.747v-47.916c0 0 0.261-9.040 11.985-9.040s59.931 0 59.931 0 7.543 0.824 7.543 7.125c0 6.29 0 336.258 0 336.258l-11.718 26.561h32.567c0 0 6.599 3.102 6.599 12.954 0 9.858 0 30.865 0 30.865s1.050 9.488-7.815 9.488zM150.246 648.83c0 0 4.866 16.065 25.715 16.065 20.847 0 357.116 0 357.116 0s10.428 1.458 20.152-33.592l31.266-108.074h-464.117l29.868 125.601zM165.537 323.894h-82.674l-26.406 26.285v62.057l109.080-33.579v-54.763zM459.429 207.050h-216.772v59.889h216.771v-59.889zM644.238 351.633l-25.709-27.739h-82.671v55.502l108.38 32.84v-60.603z" />
<glyph unicode="&#xe906;" glyph-name="mile" d="M510.421 972.8c-283.31 0-512.981-229.671-512.981-512.984 0-283.317 229.671-512.987 512.981-512.987 283.314 0 512.987 229.67 512.987 512.987 0 283.313-229.673 512.984-512.987 512.984zM511.364 62.28c-222.281 0-402.477 180.192-402.477 402.471 0 222.281 180.195 402.474 402.477 402.474 222.28 0 402.466-180.193 402.466-402.474 0-222.278-180.186-402.471-402.466-402.471zM308.797 116.917l48.95 16.027c0 0-89.1 46.082-138.257 111.627h168.98c0 0 48.311-46.086 121.957-46.086s117.684 46.086 117.684 46.086h166.926c0 0-45.053-76.805-136.203-109.578l55.117-18.076c0 0-185.786-139.94-405.154 0zM589.191 370.027c0-44.398-35.992-80.39-80.39-80.39s-80.39 35.992-80.39 80.39c0 44.398 35.992 80.39 80.39 80.39s80.39-35.992 80.39-80.39zM501.12 399.209l-5.118 50.181 123.913 181.27c0 0 25.604 15.361 10.242-32.773l-64.626-198.678h-64.411zM253.286 508.278c0-24.604-19.945-44.549-44.549-44.549s-44.549 19.945-44.549 44.549c0 24.604 19.945 44.549 44.549 44.549s44.549-19.945 44.549-44.549zM297.835 639.324c0-24.604-19.945-44.549-44.549-44.549s-44.549 19.945-44.549 44.549c0 24.604 19.945 44.549 44.549 44.549s44.549-19.945 44.549-44.549zM422.98 728.698c0-24.603-19.945-44.548-44.548-44.548s-44.548 19.945-44.548 44.548c0 24.603 19.945 44.548 44.548 44.548s44.548-19.945 44.548-44.548zM553.242 767.447c0-24.604-19.945-44.549-44.549-44.549s-44.549 19.945-44.549 44.549c0 24.604 19.945 44.549 44.549 44.549s44.549-19.945 44.549-44.549zM687.224 728.698c0-24.604-19.945-44.549-44.549-44.549s-44.549 19.945-44.549 44.549c0 24.604 19.945 44.549 44.549 44.549s44.549-19.945 44.549-44.549zM814.382 639.324c0-24.603-19.945-44.548-44.548-44.548s-44.548 19.945-44.548 44.548c0 24.603 19.945 44.548 44.548 44.548s44.548-19.945 44.548-44.548zM858.93 508.278c0-24.603-19.945-44.548-44.548-44.548s-44.548 19.945-44.548 44.548c0 24.603 19.945 44.548 44.548 44.548s44.548-19.945 44.548-44.548z" />
<glyph unicode="&#xe907;" glyph-name="color" d="M619.5 424.488l-3.064-59.772c-30.651-116.478-165.521-136.402-165.521-136.402-170.12-53.641-260.543-9.194-260.543-9.194l45.979 7.663c101.152 21.456 102.684 65.9 102.684 65.9 36.783 186.978 85.826 179.316 85.826 179.316 56.706 30.651 148.663 12.26 148.663 12.26l253.652 377.443c-86.531 67.491-195.289 107.812-313.53 107.812-281.861 0-510.357-228.496-510.357-510.357s228.496-510.357 510.357-510.357c281.864 0 510.354 228.495 510.354 510.357 0 72.070-15.021 140.607-41.967 202.77l-362.533-237.439z" />
</font></defs></svg>